module github.com/diamondburned/gotktrix

go 1.17

require (
	github.com/alecthomas/chroma v0.10.0
	github.com/bbrks/go-blurhash v1.1.1
	github.com/blevesearch/bleve/v2 v2.1.0
	github.com/diamondburned/adaptive v0.0.2-0.20220226002257-ef8720b54399
	github.com/diamondburned/chatkit v0.0.0-20220805033214-193480f04765
	github.com/diamondburned/gotk4/pkg v0.0.0-20220725071938-a40a809cc7a4
	github.com/diamondburned/gotkit v0.0.0-20220725080531-2590d1e14ff8
	github.com/diamondburned/gotrix v0.1.2-0.20220411211558-ddbed452e46f
	github.com/dustin/go-humanize v1.0.0
	github.com/enescakir/emoji v1.0.0
	github.com/pkg/errors v0.9.1
	github.com/sahilm/fuzzy v0.1.0
	github.com/yuin/goldmark v1.4.11
	github.com/zalando/go-keyring v0.2.1
	go.etcd.io/bbolt v1.3.5
	golang.org/x/crypto v0.0.0-20220321153916-2c7772ba3064
	golang.org/x/net v0.0.0-20211112202133-69e39bad7dc2
	golang.org/x/text v0.3.7
)

require (
	github.com/RoaringBitmap/roaring v0.7.3 // indirect
	github.com/alessio/shellescape v1.4.1 // indirect
	github.com/bits-and-blooms/bitset v1.2.0 // indirect
	github.com/blevesearch/bleve_index_api v1.0.1 // indirect
	github.com/blevesearch/go-porterstemmer v1.0.3 // indirect
	github.com/blevesearch/mmap-go v1.0.2 // indirect
	github.com/blevesearch/scorch_segment_api/v2 v2.0.1 // indirect
	github.com/blevesearch/segment v0.9.0 // indirect
	github.com/blevesearch/snowballstem v0.9.0 // indirect
	github.com/blevesearch/upsidedown_store_api v1.0.1 // indirect
	github.com/blevesearch/vellum v1.0.5 // indirect
	github.com/blevesearch/zapx/v11 v11.2.2 // indirect
	github.com/blevesearch/zapx/v12 v12.2.2 // indirect
	github.com/blevesearch/zapx/v13 v13.2.2 // indirect
	github.com/blevesearch/zapx/v14 v14.2.2 // indirect
	github.com/blevesearch/zapx/v15 v15.2.2 // indirect
	github.com/danieljoos/wincred v1.1.0 // indirect
	github.com/dlclark/regexp2 v1.4.0 // indirect
	github.com/fatih/color v1.10.0 // indirect
	github.com/godbus/dbus/v5 v5.0.6 // indirect
	github.com/golang/protobuf v1.3.2 // indirect
	github.com/golang/snappy v0.0.1 // indirect
	github.com/kylelemons/godebug v1.1.0 // indirect
	github.com/mattn/go-colorable v0.1.8 // indirect
	github.com/mattn/go-isatty v0.0.12 // indirect
	github.com/mschoch/smat v0.2.0 // indirect
	github.com/steveyen/gtreap v0.1.0 // indirect
	go4.org/unsafe/assume-no-moving-gc v0.0.0-20220617031537-928513b29760 // indirect
	golang.org/x/mod v0.3.0 // indirect
	golang.org/x/sync v0.0.0-20210220032951-036812b2e83c // indirect
	golang.org/x/sys v0.0.0-20210615035016-665e8c7367d1 // indirect
	golang.org/x/tools v0.0.0-20200928182047-19e03678916f // indirect
	golang.org/x/xerrors v0.0.0-20200804184101-5ec99f83aff1 // indirect
)
